-------------------------------------------------------------------------------
Test set: com.alexaegis.advancedjava.posta.PostaTest
-------------------------------------------------------------------------------
Tests run: 1, Failures: 0, Errors: 0, Skipped: 0, Time elapsed: 0 sec
